{
 "proxies":
 {
   "default":
   {
     "httpProxy": "http://proxy1.daq.kambi.com:3128",
     "httpsProxy": "http://proxy1.daq.kambi.com:3128",
     "noProxy": "localhost,127.0.0.0/8,10.0.0.0/8,192.168.0.0/16,172.16.0.0/12,*.kambi.com,*.services.kambi.com,.kambi.com"
   }
 }
}
